faq – CS Jobs at Undergrad Institutions (PUIs)
…
# A tibble: 48 × 6
   fname                    location   lat    lon time_added          deadline  
   <chr>                    <chr>    <dbl>  <dbl> <dttm>              <date>    
 1 jobs/2025-Allegheny-Col… Meadvil…  41.6  -80.2 2026-07-23 17:34:13 2025-11-15
 2 jobs/2025-american-csms… Washing…  38.9  -77.0 2026-07-23 17:34:13 2025-11-01
 3 jobs/2025-amherst-data-… Amherst…  42.4  -72.5 2026-07-23 17:34:13 2025-03-01
 4 jobs/2025-amherst-syste… Amherst…  42.4  -72.5 2026-07-23 17:34:13 2025-03-01
 5 jobs/2025-amherst.qmd    Amherst…  42.4  -72.5 2026-07-23 17:34:13 2025-10-07
 6 jobs/2025-Bard-College-… Annanda…  42.0  -73.9 2026-07-23 17:34:13 2025-10-15
 7 jobs/2025-Bard-College-… Annanda…  42.0  -73.9 2026-07-23 17:34:13 2025-10-15
 8 jobs/2025-barnard.qmd    New Yor…  40.7  -74.0 2026-07-23 17:34:13 2025-10-08
 9 jobs/2025-Berea-College… Berea, …  37.6  -84.3 2026-07-23 17:34:13 2025-10-01
10 jobs/2025-Cal-Poly-SLO-… San Lui…  35.3 -121.  2026-07-23 17:34:13 2025-12-10
# ℹ 38 more rows
…
